{
  "version": 2,
  "cli": {
    "defaultCollection": "@nrwl/next"
  },
  "defaultProject": "nx-vercel-deploy",
  "generators": {
    "@nrwl/react": {
      "application": {
        "babel": true
      }
    },
    "@nrwl/next": {
      "application": {
        "style": "scss",
        "linter": "eslint"
      }
    }
  },
  "projects": {
    "nx-vercel-deploy": {
      "root": "apps/nx-vercel-deploy",
      "sourceRoot": "apps/nx-vercel-deploy",
      "projectType": "application",
      "targets": {
        "build": {
          "executor": "@nrwl/next:build",
          "outputs": ["{options.outputPath}"],
          "options": {
            "root": "apps/nx-vercel-deploy",
            "outputPath": "dist/apps/nx-vercel-deploy"
          },
          "configurations": {
            "production": {}
          }
        },
        "serve": {
          "executor": "@nrwl/next:server",
          "options": {
            "buildTarget": "nx-vercel-deploy:build",
            "dev": true
          },
          "configurations": {
            "production": {
              "buildTarget": "nx-vercel-deploy:build:production",
              "dev": false
            }
          }
        },
        "export": {
          "executor": "@nrwl/next:export",
          "options": {
            "buildTarget": "nx-vercel-deploy:build:production"
          }
        },
        "test": {
          "executor": "@nrwl/jest:jest",
          "outputs": ["coverage/apps/nx-vercel-deploy"],
          "options": {
            "jestConfig": "apps/nx-vercel-deploy/jest.config.js",
            "passWithNoTests": true
          }
        },
        "lint": {
          "executor": "@nrwl/linter:eslint",
          "options": {
            "lintFilePatterns": ["apps/nx-vercel-deploy/**/*.{ts,tsx,js,jsx}"]
          }
        }
      }
    },
    "nx-vercel-deploy-e2e": {
      "root": "apps/nx-vercel-deploy-e2e",
      "sourceRoot": "apps/nx-vercel-deploy-e2e/src",
      "projectType": "application",
      "targets": {
        "e2e": {
          "executor": "@nrwl/cypress:cypress",
          "options": {
            "cypressConfig": "apps/nx-vercel-deploy-e2e/cypress.json",
            "tsConfig": "apps/nx-vercel-deploy-e2e/tsconfig.e2e.json",
            "devServerTarget": "nx-vercel-deploy:serve"
          },
          "configurations": {
            "production": {
              "devServerTarget": "nx-vercel-deploy:serve:production"
            }
          }
        },
        "lint": {
          "executor": "@nrwl/linter:eslint",
          "options": {
            "lintFilePatterns": ["apps/nx-vercel-deploy-e2e/**/*.{js,ts}"]
          }
        }
      }
    }
  }
}
